Suite/Test/Step Name,Browser,Description,Tag,Start time,End time,Duration,Status
AddToCart,Chrome 87.0.4280.141,,,2021-01-08 10:37:13,2021-01-08 10:38:41,1m - 27.541s,PASSED
,,,,,,,
Test Cases/Add To Cart/AddToCart,Chrome 87.0.4280.141,,,2021-01-08 10:37:16,2021-01-08 10:38:41,1m - 25.223s,PASSED
"openBrowser(""https://staging.ladara.id/"")",Chrome 87.0.4280.141,,,2021-01-08 10:37:16,2021-01-08 10:37:48,31.481s,PASSED
"click(findTestObject(""Object Repository/AddToCart/Page_/Page_/a_Masuk""))",Chrome 87.0.4280.141,,,2021-01-08 10:37:48,2021-01-08 10:37:53,4.692s,PASSED
"setText(findTestObject(""Object Repository/LoginObjectRepository/Page_Login/input_Selamat datang di Ladara_log""), ""testingkatalon13@gmail.com"")",Chrome 87.0.4280.141,,,2021-01-08 10:37:53,2021-01-08 10:37:57,4.335s,PASSED
"setText(findTestObject(""Object Repository/LoginObjectRepository/Page_Login/input_Masukkan Email_pwd""), ""Testing123"")",Chrome 87.0.4280.141,,,2021-01-08 10:37:57,2021-01-08 10:38:01,3.984s,PASSED
"click(findTestObject(""Object Repository/LoginObjectRepository/Page_Login/input_Masukkan Kata Sandi_user-submit""))",Chrome 87.0.4280.141,,,2021-01-08 10:38:01,2021-01-08 10:38:03,1.964s,PASSED
delay(5),Chrome 87.0.4280.141,,,2021-01-08 10:38:03,2021-01-08 10:38:08,5.044s,PASSED
"setText(findTestObject(""Wishlist dan Searching Box/Page_/input_tutup_keyword""), ""celana"")",Chrome 87.0.4280.141,,,2021-01-08 10:38:08,2021-01-08 10:38:16,8.017s,PASSED
"click(findTestObject(""Wishlist dan Searching Box/Page_/span_tutup_glyphicon glyphicon-search sp_searchNow submit-search""))",Chrome 87.0.4280.141,,,2021-01-08 10:38:16,2021-01-08 10:38:23,7.179s,PASSED
"click(findTestObject(""Object Repository/Cart/Page_Product/h4_Celana pendek anak Rcr -80 baby frozen""))",Chrome 87.0.4280.141,,,2021-01-08 10:38:23,2021-01-08 10:38:35,12.098s,PASSED
"click(findTestObject(""Object Repository/Cart/Page_Jual Celana pendek anak Rcr -80 baby frozen/label_3 tahun""))",Chrome 87.0.4280.141,,,2021-01-08 10:38:35,2021-01-08 10:38:37,1.645s,PASSED
"click(findTestObject(""Object Repository/Cart/Page_Jual Celana pendek anak Rcr -80 baby frozen/label_Biru""))",Chrome 87.0.4280.141,,,2021-01-08 10:38:37,2021-01-08 10:38:39,2.076s,PASSED
"click(findTestObject(""Object Repository/Cart/Page_Jual Celana pendek anak Rcr -80 baby frozen/span_Sukses menambahkan produk ini ke keranjang belanja Anda._addtocart_detail""))",Chrome 87.0.4280.141,,,2021-01-08 10:38:39,2021-01-08 10:38:41,1.977s,PASSED
