Suite/Test/Step Name,Browser,Description,Tag,Start time,End time,Duration,Status
SearchingBox,Chrome 88.0.4324.104,,,2021-01-26 10:32:24,2021-01-26 10:32:45,21.089s,PASSED
,,,,,,,
Test Cases/Searching Box/Searching Box,Chrome 88.0.4324.104,,,2021-01-26 10:32:26,2021-01-26 10:32:45,19.959s,PASSED
"openBrowser(""https://staging.ladara.id/"")",Chrome 88.0.4324.104,,,2021-01-26 10:32:26,2021-01-26 10:32:37,10.646s,PASSED
"setText(findTestObject(""Wishlist dan Searching Box/Page_/input_tutup_keyword""), ""celana"")",Chrome 88.0.4324.104,,,2021-01-26 10:32:37,2021-01-26 10:32:38,1.368s,PASSED
"click(findTestObject(""Wishlist dan Searching Box/Page_/span_tutup_glyphicon glyphicon-search sp_searchNow submit-search""))",Chrome 88.0.4324.104,,,2021-01-26 10:32:38,2021-01-26 10:32:40,2.225s,PASSED
