Suite/Test/Step Name,Browser,Description,Tag,Start time,End time,Duration,Status
LoginRegression,,,,2020-12-23 14:14:41,2020-12-23 14:14:51,10.454s,FAILED
,,,,,,,
Test Cases/Login/LoginFacebook,,,,2020-12-23 14:14:41,2020-12-23 14:14:44,2.531s,FAILED
"openBrowser(""https://staging.ladara.id/login#!"")",,,,2020-12-23 14:14:41,2020-12-23 14:14:44,2.237s,FAILED
,,,,,,,
Test Cases/Login/LoginGoogle,,,,2020-12-23 14:14:44,2020-12-23 14:14:45,1.283s,FAILED
"openBrowser(""https://staging.ladara.id/login#!"")",,,,2020-12-23 14:14:44,2020-12-23 14:14:45,1.094s,FAILED
,,,,,,,
Test Cases/Login/LoginManual,,,,2020-12-23 14:14:45,2020-12-23 14:14:46,1.253s,FAILED
"openBrowser(""https://staging.ladara.id/login#!"")",,,,2020-12-23 14:14:45,2020-12-23 14:14:46,1.090s,FAILED
,,,,,,,
Test Cases/Login/LoginManualNegatifCase1,,Login dengan password salah,,2020-12-23 14:14:46,2020-12-23 14:14:48,1.278s,FAILED
"openBrowser(""https://staging.ladara.id/login#!"")",,,,2020-12-23 14:14:46,2020-12-23 14:14:48,1.107s,FAILED
,,,,,,,
Test Cases/Login/LoginManualNegatifCase2,,Login dengan email yang belum terdaftar,,2020-12-23 14:14:48,2020-12-23 14:14:49,1.331s,FAILED
"openBrowser(""https://staging.ladara.id/login#!"")",,,,2020-12-23 14:14:48,2020-12-23 14:14:49,1.095s,FAILED
,,,,,,,
Test Cases/Login/LoginManualNegatifCase3,,"Login menggunakan email yang sudah terdaftar 
namun belum dikonfirmasi",,2020-12-23 14:14:49,2020-12-23 14:14:50,1.292s,FAILED
"openBrowser(""https://staging.ladara.id/login#!"")",,,,2020-12-23 14:14:49,2020-12-23 14:14:50,1.079s,FAILED
,,,,,,,
Test Cases/Login/LoginManualNegatifCase4,,Login dengan cara forgot password,,2020-12-23 14:14:50,2020-12-23 14:14:51,1.242s,FAILED
"openBrowser(""https://staging.ladara.id/login#!"")",,,,2020-12-23 14:14:50,2020-12-23 14:14:51,1.075s,FAILED
