Suite/Test/Step Name,Browser,Description,Tag,Start time,End time,Duration,Status
LoginRegression,Chrome 87.0.4280.88,,,2020-12-23 17:10:12,2020-12-23 17:12:54,2m - 41.066s,PASSED
,,,,,,,
Test Cases/Login/LoginFacebook,Chrome 87.0.4280.88,,,2020-12-23 17:10:13,2020-12-23 17:10:28,15.221s,PASSED
"openBrowser(""https://staging.ladara.id/login#!"")",Chrome 87.0.4280.88,,,2020-12-23 17:10:13,2020-12-23 17:10:23,9.713s,PASSED
"click(findTestObject(""Object Repository/LoginObjectRepository/Page_Login/div_Facebook""))",Chrome 87.0.4280.88,,,2020-12-23 17:10:23,2020-12-23 17:10:25,2.736s,PASSED
"setText(findTestObject(""Object Repository/RegisterObjectRepository/Page_Masuk Facebook  Facebook/input_Login ke Facebook_email""), ""mathiasandwiki15@gmail.com"")",Chrome 87.0.4280.88,,,2020-12-23 17:10:25,2020-12-23 17:10:27,1.241s,PASSED
"setText(findTestObject(""Object Repository/RegisterObjectRepository/Page_Masuk Facebook  Facebook/input_Login ke Facebook_pass""), ""mamaku123"")",Chrome 87.0.4280.88,,,2020-12-23 17:10:27,2020-12-23 17:10:27,0.812s,PASSED
"click(findTestObject(""Object Repository/RegisterObjectRepository/Page_Masuk Facebook  Facebook/button_Login""))",Chrome 87.0.4280.88,,,2020-12-23 17:10:27,2020-12-23 17:10:28,0.471s,PASSED
,,,,,,,
Test Cases/Login/LoginGoogle,Chrome 87.0.4280.88,,,2020-12-23 17:10:28,2020-12-23 17:10:41,13.024s,PASSED
"openBrowser(""https://staging.ladara.id/login#!"")",Chrome 87.0.4280.88,,,2020-12-23 17:10:28,2020-12-23 17:10:36,7.778s,PASSED
"click(findTestObject(""Object Repository/LoginObjectRepository/Page_Login/div_Google""))",Chrome 87.0.4280.88,,,2020-12-23 17:10:36,2020-12-23 17:10:38,1.541s,PASSED
"setText(findTestObject(""Object Repository/RegisterObjectRepository/Page_Masuk - Akun Google/input_ladara.id_identifier""), ""mathias.brait@idstar.co.id"")",Chrome 87.0.4280.88,,,2020-12-23 17:10:38,2020-12-23 17:10:39,0.997s,PASSED
"click(findTestObject(""Object Repository/RegisterObjectRepository/Page_Masuk - Akun Google/div_Berikutnya_VfPpkd-RLmnJb""))",Chrome 87.0.4280.88,,,2020-12-23 17:10:39,2020-12-23 17:10:39,0.428s,PASSED
"setText(findTestObject(""Object Repository/RegisterObjectRepository/Page_Masuk - Akun Google/input_Terlalu sering gagal_password""), ""idstar123"")",Chrome 87.0.4280.88,,,2020-12-23 17:10:39,2020-12-23 17:10:41,1.981s,PASSED
,,,,,,,
Test Cases/Login/LoginManual,Chrome 87.0.4280.88,,,2020-12-23 17:10:41,2020-12-23 17:10:52,11.338s,PASSED
"openBrowser(""https://staging.ladara.id/login#!"")",Chrome 87.0.4280.88,,,2020-12-23 17:10:41,2020-12-23 17:10:49,8.051s,PASSED
"setText(findTestObject(""Object Repository/LoginObjectRepository/Page_Login/input_Selamat datang di Ladara_log""), ""mathiasandwiki15@gmail.com"")",Chrome 87.0.4280.88,,,2020-12-23 17:10:49,2020-12-23 17:10:51,1.964s,PASSED
"setText(findTestObject(""Object Repository/LoginObjectRepository/Page_Login/input_Masukkan Email_pwd""), ""Testing123"")",Chrome 87.0.4280.88,,,2020-12-23 17:10:51,2020-12-23 17:10:52,0.666s,PASSED
"click(findTestObject(""Object Repository/LoginObjectRepository/Page_Login/input_Masukkan Kata Sandi_user-submit""))",Chrome 87.0.4280.88,,,2020-12-23 17:10:52,2020-12-23 17:10:52,0.448s,PASSED
,,,,,,,
Test Cases/Login/LoginManualNegatifCase1,Chrome 87.0.4280.88,Login dengan password salah,,2020-12-23 17:10:52,2020-12-23 17:11:04,11.223s,PASSED
"openBrowser(""https://staging.ladara.id/login#!"")",Chrome 87.0.4280.88,,,2020-12-23 17:10:53,2020-12-23 17:11:00,7.817s,PASSED
"setText(findTestObject(""Object Repository/LoginObjectRepository/Page_Login/input_Selamat datang di Ladara_log""), ""mathiasandwiki15@gmail.com"")",Chrome 87.0.4280.88,,,2020-12-23 17:11:00,2020-12-23 17:11:02,1.995s,PASSED
"setText(findTestObject(""Object Repository/LoginObjectRepository/Page_Login/input_Masukkan Email_pwd""), ""Testing"")",Chrome 87.0.4280.88,,,2020-12-23 17:11:02,2020-12-23 17:11:03,0.740s,PASSED
"click(findTestObject(""Object Repository/LoginObjectRepository/Page_Login/input_Masukkan Kata Sandi_user-submit""))",Chrome 87.0.4280.88,,,2020-12-23 17:11:03,2020-12-23 17:11:04,0.447s,PASSED
,,,,,,,
Test Cases/Login/LoginManualNegatifCase2,Chrome 87.0.4280.88,Login dengan email yang belum terdaftar,,2020-12-23 17:11:04,2020-12-23 17:11:38,34.370s,PASSED
"openBrowser(""https://staging.ladara.id/login#!"")",Chrome 87.0.4280.88,,,2020-12-23 17:11:04,2020-12-23 17:11:25,20.966s,PASSED
"setText(findTestObject(""Object Repository/LoginObjectRepository/Page_Login/input_Selamat datang di Ladara_log""), ""testingladara@gmail.com"")",Chrome 87.0.4280.88,,,2020-12-23 17:11:25,2020-12-23 17:11:32,6.936s,PASSED
"setText(findTestObject(""Object Repository/LoginObjectRepository/Page_Login/input_Masukkan Email_pwd""), ""Testing123"")",Chrome 87.0.4280.88,,,2020-12-23 17:11:32,2020-12-23 17:11:36,4.010s,PASSED
"click(findTestObject(""Object Repository/LoginObjectRepository/Page_Login/input_Masukkan Kata Sandi_user-submit""))",Chrome 87.0.4280.88,,,2020-12-23 17:11:36,2020-12-23 17:11:38,2.045s,PASSED
,,,,,,,
Test Cases/Login/LoginManualNegatifCase3,Chrome 87.0.4280.88,"Login menggunakan email yang sudah terdaftar 
namun belum dikonfirmasi",,2020-12-23 17:11:38,2020-12-23 17:12:12,34.147s,PASSED
"openBrowser(""https://staging.ladara.id/login#!"")",Chrome 87.0.4280.88,,,2020-12-23 17:11:38,2020-12-23 17:12:01,22.354s,PASSED
"setText(findTestObject(""Object Repository/LoginObjectRepository/Page_Login/input_Selamat datang di Ladara_log""), ""mathiassitohang1@gmail.com"")",Chrome 87.0.4280.88,,,2020-12-23 17:12:01,2020-12-23 17:12:06,5.221s,PASSED
"setText(findTestObject(""Object Repository/LoginObjectRepository/Page_Login/input_Masukkan Email_pwd""), ""tester123"")",Chrome 87.0.4280.88,,,2020-12-23 17:12:06,2020-12-23 17:12:10,3.925s,PASSED
"click(findTestObject(""Object Repository/LoginObjectRepository/Page_Login/input_Masukkan Kata Sandi_user-submit""))",Chrome 87.0.4280.88,,,2020-12-23 17:12:10,2020-12-23 17:12:12,2.220s,PASSED
,,,,,,,
Test Cases/Login/LoginManualNegatifCase4,Chrome 87.0.4280.88,Login dengan cara forgot password,,2020-12-23 17:12:12,2020-12-23 17:12:54,41.448s,PASSED
"openBrowser(""https://staging.ladara.id/login#!"")",Chrome 87.0.4280.88,,,2020-12-23 17:12:13,2020-12-23 17:12:35,21.983s,PASSED
"click(findTestObject(""Object Repository/LoginObjectRepository/Page_Login/a_Lupa kata sandi""))",Chrome 87.0.4280.88,,,2020-12-23 17:12:35,2020-12-23 17:12:41,6.538s,PASSED
"setText(findTestObject(""Object Repository/LoginObjectRepository/Page_Lupa Password/input_Maaf,_u_email""), ""mathiassitohang1@gmail.com"")",Chrome 87.0.4280.88,,,2020-12-23 17:12:41,2020-12-23 17:12:47,5.588s,PASSED
"click(findTestObject(""Object Repository/LoginObjectRepository/Page_Lupa Password/input_Masukkan Email_user-submit""))",Chrome 87.0.4280.88,,,2020-12-23 17:12:47,2020-12-23 17:12:49,1.933s,PASSED
"navigateToUrl(""https://staging.ladara.id/login#!"")",Chrome 87.0.4280.88,,,2020-12-23 17:12:49,2020-12-23 17:12:54,4.571s,PASSED
