Suite/Test/Step Name,Browser,Description,Tag,Start time,End time,Duration,Status
AddWishlist,,,,2020-12-23 16:56:57,2020-12-23 16:57:01,4.560s,FAILED
,,,,,,,
Test Cases/AddWishlist/Add Product To Wishlist,,,,2020-12-23 16:56:57,2020-12-23 16:57:01,4.027s,FAILED
"openBrowser(""https://staging.ladara.id/"")",,,,2020-12-23 16:56:58,2020-12-23 16:57:01,3.235s,FAILED
