Suite/Test/Step Name,Browser,Description,Tag,Start time,End time,Duration,Status
LoginRegression,,,,2020-12-23 17:01:36,2020-12-23 17:01:51,15.012s,FAILED
,,,,,,,
Test Cases/Login/LoginFacebook,,,,2020-12-23 17:01:37,2020-12-23 17:01:41,4.195s,FAILED
"openBrowser(""https://staging.ladara.id/login#!"")",,,,2020-12-23 17:01:37,2020-12-23 17:01:41,3.562s,FAILED
,,,,,,,
Test Cases/Login/LoginGoogle,,,,2020-12-23 17:01:41,2020-12-23 17:01:43,1.863s,FAILED
"openBrowser(""https://staging.ladara.id/login#!"")",,,,2020-12-23 17:01:41,2020-12-23 17:01:43,1.345s,FAILED
,,,,,,,
Test Cases/Login/LoginManual,,,,2020-12-23 17:01:43,2020-12-23 17:01:44,1.721s,FAILED
"openBrowser(""https://staging.ladara.id/login#!"")",,,,2020-12-23 17:01:43,2020-12-23 17:01:44,1.242s,FAILED
,,,,,,,
Test Cases/Login/LoginManualNegatifCase1,,Login dengan password salah,,2020-12-23 17:01:44,2020-12-23 17:01:46,1.662s,FAILED
"openBrowser(""https://staging.ladara.id/login#!"")",,,,2020-12-23 17:01:45,2020-12-23 17:01:46,1.220s,FAILED
,,,,,,,
Test Cases/Login/LoginManualNegatifCase2,,Login dengan email yang belum terdaftar,,2020-12-23 17:01:46,2020-12-23 17:01:48,1.658s,FAILED
"openBrowser(""https://staging.ladara.id/login#!"")",,,,2020-12-23 17:01:47,2020-12-23 17:01:48,1.231s,FAILED
,,,,,,,
Test Cases/Login/LoginManualNegatifCase3,,"Login menggunakan email yang sudah terdaftar 
namun belum dikonfirmasi",,2020-12-23 17:01:48,2020-12-23 17:01:50,1.775s,FAILED
"openBrowser(""https://staging.ladara.id/login#!"")",,,,2020-12-23 17:01:48,2020-12-23 17:01:50,1.340s,FAILED
,,,,,,,
Test Cases/Login/LoginManualNegatifCase4,,Login dengan cara forgot password,,2020-12-23 17:01:50,2020-12-23 17:01:51,1.627s,FAILED
"openBrowser(""https://staging.ladara.id/login#!"")",,,,2020-12-23 17:01:50,2020-12-23 17:01:51,1.210s,FAILED
